        {
            "name": "gpac",
            "config-opts": [
                /* x264 needs the static lib */
                "--disable-shared",
                "--enable-static",
                "--disable-doc"
            ],
            "make-install-args": [
                "install-lib"
            ],
            "sources": [
                {
                    "type": "archive",
                    "url": "https://github.com/gpac/gpac/archive/v0.6.1.tar.gz",
                    "sha256": "67d1ac8f8b3e74da0e4e38ea926dc15bca6e9941e8f366e3538abcf13c103c09"
                }
            ],
            "cleanup": [
                "*"
            ]
        }
