        {
            "name": "yasm",
            "sources": [
                {
                    "type": "archive",
                    "url": "https://www.tortall.net/projects/yasm/releases/yasm-1.3.0.tar.gz",
                    "sha256": "3dce6601b495f5b3d45b59f7d2492a340ee7e84b5beca17e48f862502bd5603f"
                }
            ],
            "cleanup": [
                "*"
            ]
        }
